<?xml version="1.0" encoding="utf-8"?>
<!-- Generator: Adobe Illustrator 17.0.0, SVG Export Plug-In . SVG Version: 6.00 Build 0)  -->
<!DOCTYPE svg PUBLIC "-//W3C//DTD SVG 1.1//EN" "http://www.w3.org/Graphics/SVG/1.1/DTD/svg11.dtd">
<svg version="1.1" id="Layer_1" xmlns="http://www.w3.org/2000/svg" xmlns:xlink="http://www.w3.org/1999/xlink" x="0px" y="0px"
	 width="50px" height="33px" viewBox="0 0 50 33" enable-background="new 0 0 50 33" xml:space="preserve">
<g opacity="0.5">
	<path fill="none" stroke="#BCBEC0" stroke-width="2" stroke-miterlimit="10" d="M-2115.842,2794.932c0,8.25-6.75,15-15,15h-802.042
		c-8.25,0-15-6.75-15-15v-67.122c0-8.25,6.75-15,15-15h802.042c8.25,0,15,6.75,15,15V2794.932z"/>
</g>
<rect x="-3399" y="273.75" fill="#FFFFFF" stroke="#A7A9AC" stroke-miterlimit="10" width="1600" height="116"/>
<g opacity="0.2">
	<text transform="matrix(1 0 0 1 -3106.4841 337.9506)" font-family="'Rubik-Medium'" font-size="26.3937">ADMIN</text>
</g>
<g>
	<text transform="matrix(1 0 0 1 -1975.4841 344.1982)" fill="#B5B5B6" font-family="'Nunito-Bold'" font-size="30">LOG OUT</text>
</g>
<g>
	<text transform="matrix(1 0 0 1 -2181.9761 344.1983)" fill="#B5B5B6" font-family="'Nunito-Bold'" font-size="30">MY PROFILE</text>
</g>
<line opacity="0.2" fill="none" stroke="#000000" stroke-width="2" stroke-miterlimit="10" x1="-3130" y1="356.455" x2="-3130" y2="304.455"/>
<g>
	<rect x="-3398.735" y="389.75" fill="#FFFFFF" width="388.735" height="1070.324"/>
	<rect x="-3398.735" y="389.75" fill="none" stroke="#BCBEC0" stroke-miterlimit="10" width="388.735" height="1070.324"/>
</g>
<g>
	<text transform="matrix(1 0 0 1 -3257.4641 490.6596)" fill="#B5B5B6" font-family="'Rubik-Regular'" font-size="25">DASHBOARD</text>
</g>
<path fill="#B5B5B6" d="M-3317.327,484.536h19.591v19.591h-19.591V484.536z M-3323.2,459.072h-19.591v19.591h19.591V459.072z
	 M-3342.792,484.536v19.591h19.591v-19.591H-3342.792z M-3317.327,459.072v19.591h19.591v-19.591H-3317.327z"/>
<g>
	<text transform="matrix(1 0 0 1 -3258.9636 592.3369)" fill="#B5B5B6" font-family="'Rubik-Regular'" font-size="25">INQUIRIES</text>
</g>
<text transform="matrix(1 0 0 1 -3260.9636 693.3367)" fill="#B5B5B6" font-family="'Rubik-Regular'" font-size="25">COMPANIES</text>
<text transform="matrix(1 0 0 1 -3260.9636 792.3367)" fill="#B5B5B6" font-family="'Rubik-Regular'" font-size="25">USERS</text>
<g>
	<path fill="#B5B5B6" d="M-3322.82,776.089c5.389,0,9.758-5.114,9.758-11.421c0-8.747-4.369-11.421-9.758-11.421
		c-5.389,0-9.758,2.674-9.758,11.421C-3332.578,770.975-3328.209,776.089-3322.82,776.089L-3322.82,776.089z M-3322.82,776.089"/>
	<path fill="#B5B5B6" d="M-3301.272,796.06l-4.923-11.09c-0.225-0.508-0.621-0.929-1.113-1.185l-7.64-3.977
		c-0.168-0.088-0.372-0.071-0.524,0.044c-2.16,1.634-4.701,2.498-7.347,2.498c-2.646,0-5.187-0.864-7.347-2.498
		c-0.152-0.115-0.356-0.132-0.525-0.044l-7.64,3.977c-0.493,0.256-0.888,0.677-1.113,1.185l-4.923,11.09
		c-0.34,0.764-0.27,1.639,0.186,2.34c0.456,0.701,1.227,1.12,2.063,1.12h38.595c0.837,0,1.608-0.419,2.064-1.12
		C-3301.003,797.699-3300.933,796.823-3301.272,796.06L-3301.272,796.06z M-3301.272,796.06"/>
</g>
<g>
	<text transform="matrix(1 0 0 1 -3262.6082 1000.3293)" fill="#B5B5B6" font-family="'Rubik-Regular'" font-size="25">QUESTIONS</text>
</g>
<g>
	<text transform="matrix(1 0 0 1 -3259.4534 888.8383)" font-family="'Rubik-Regular'" font-size="25">CATEGORIES</text>
</g>
<g>
	<text transform="matrix(1 0 0 1 -2947.884 1664.1659)" fill="#F05051" font-family="'Rubik-Regular'" font-size="25"> + Add Sub-category</text>
</g>
<g>
	<text transform="matrix(1 0 0 1 -2896.2263 490.6597)" fill="#F05051" font-family="'Rubik-Regular'" font-size="25"> Add category</text>
</g>
<path fill="#B5B5B6" stroke="#B5B5B6" stroke-width="2" stroke-miterlimit="10" d="M-3294.832,702.927h-5.533v-30.433
	c0-0.509-0.413-0.922-0.922-0.922h-12.911v-21.211c0-0.509-0.413-0.922-0.922-0.922h-23.977c-0.509,0-0.922,0.413-0.922,0.922
	v52.565h-8.3c-0.509,0-0.922,0.413-0.922,0.922s0.413,0.922,0.922,0.922h53.488c0.509,0,0.922-0.413,0.922-0.922
	S-3294.323,702.927-3294.832,702.927z"/>
<path fill="#FFFFFF" d="M-3333.564,702.927v-8.3c0-0.509,0.413-0.922,0.922-0.922h1.844c0.509,0,0.922,0.413,0.922,0.922v8.3
	H-3333.564z"/>
<rect x="-3324.342" y="673.417" fill="#FFFFFF" width="22.133" height="29.51"/>
<path fill="#FFFFFF" d="M-3338.175,651.284h22.133v20.288h-9.222c-0.509,0-0.922,0.413-0.922,0.922v30.433h-1.844v-8.3
	c0-1.528-1.239-2.767-2.767-2.767h-1.844c-1.528,0-2.767,1.239-2.767,2.767v8.3h-2.767V651.284z M-3325.264,669.728h5.533
	c0.509,0,0.922-0.413,0.922-0.922v-5.533c0-0.509-0.413-0.922-0.922-0.922h-5.533c-0.509,0-0.922,0.413-0.922,0.922v5.533
	C-3326.187,669.315-3325.774,669.728-3325.264,669.728z M-3324.342,664.195h3.689v3.689h-3.689V664.195z M-3325.264,660.506h5.533
	c0.509,0,0.922-0.413,0.922-0.922v-5.533c0-0.509-0.413-0.922-0.922-0.922h-5.533c-0.509,0-0.922,0.413-0.922,0.922v5.533
	C-3326.187,660.093-3325.774,660.506-3325.264,660.506z M-3324.342,654.973h3.689v3.689h-3.689V654.973z M-3334.486,669.728h5.533
	c0.509,0,0.922-0.413,0.922-0.922v-5.533c0-0.509-0.413-0.922-0.922-0.922h-5.533c-0.509,0-0.922,0.413-0.922,0.922v5.533
	C-3335.408,669.315-3334.996,669.728-3334.486,669.728z M-3333.564,664.195h3.689v3.689h-3.689V664.195z M-3334.486,660.506h5.533
	c0.509,0,0.922-0.413,0.922-0.922v-5.533c0-0.509-0.413-0.922-0.922-0.922h-5.533c-0.509,0-0.922,0.413-0.922,0.922v5.533
	C-3335.408,660.093-3334.996,660.506-3334.486,660.506z M-3333.564,654.973h3.689v3.689h-3.689V654.973z M-3334.486,678.95h5.533
	c0.509,0,0.922-0.413,0.922-0.922v-5.533c0-0.509-0.413-0.922-0.922-0.922h-5.533c-0.509,0-0.922,0.413-0.922,0.922v5.533
	C-3335.408,678.537-3334.996,678.95-3334.486,678.95z M-3333.564,673.417h3.689v3.689h-3.689V673.417z M-3334.486,688.172h5.533
	c0.509,0,0.922-0.413,0.922-0.922v-5.533c0-0.509-0.413-0.922-0.922-0.922h-5.533c-0.509,0-0.922,0.413-0.922,0.922v5.533
	C-3335.408,687.759-3334.996,688.172-3334.486,688.172z M-3333.564,682.639h3.689v3.689h-3.689V682.639z"/>
<path fill="#B5B5B6" d="M-3305.898,684.483h-5.533c-0.509,0-0.922,0.413-0.922,0.922v5.533c0,0.509,0.413,0.922,0.922,0.922h5.533
	c0.509,0,0.922-0.413,0.922-0.922v-5.533C-3304.976,684.896-3305.389,684.483-3305.898,684.483z M-3306.82,690.016h-3.689v-3.689
	h3.689V690.016z M-3305.898,675.261h-5.533c-0.509,0-0.922,0.413-0.922,0.922v5.533c0,0.509,0.413,0.922,0.922,0.922h5.533
	c0.509,0,0.922-0.413,0.922-0.922v-5.533C-3304.976,675.674-3305.389,675.261-3305.898,675.261z M-3306.82,680.794h-3.689v-3.689
	h3.689V680.794z M-3305.898,693.705h-5.533c-0.509,0-0.922,0.413-0.922,0.922v5.533c0,0.509,0.413,0.922,0.922,0.922h5.533
	c0.509,0,0.922-0.413,0.922-0.922v-5.533C-3304.976,694.118-3305.389,693.705-3305.898,693.705z M-3306.82,699.238h-3.689v-3.689
	h3.689V699.238z M-3315.12,684.483h-5.533c-0.509,0-0.922,0.413-0.922,0.922v5.533c0,0.509,0.413,0.922,0.922,0.922h5.533
	c0.509,0,0.922-0.413,0.922-0.922v-5.533C-3314.198,684.896-3314.611,684.483-3315.12,684.483z M-3316.042,690.016h-3.689v-3.689
	h3.689V690.016z M-3315.12,675.261h-5.533c-0.509,0-0.922,0.413-0.922,0.922v5.533c0,0.509,0.413,0.922,0.922,0.922h5.533
	c0.509,0,0.922-0.413,0.922-0.922v-5.533C-3314.198,675.674-3314.611,675.261-3315.12,675.261z M-3316.042,680.794h-3.689v-3.689
	h3.689V680.794z M-3315.12,693.705h-5.533c-0.509,0-0.922,0.413-0.922,0.922v5.533c0,0.509,0.413,0.922,0.922,0.922h5.533
	c0.509,0,0.922-0.413,0.922-0.922v-5.533C-3314.198,694.118-3314.611,693.705-3315.12,693.705z M-3316.042,699.238h-3.689v-3.689
	h3.689V699.238z"/>
<g>
	<path fill="#FFFFFF" d="M-2621.032,720.194c0,8.25-6.75,15-15,15h-303.73c-8.25,0-15-6.75-15-15v-141.51c0-8.25,6.75-15,15-15
		h303.73c8.25,0,15,6.75,15,15V720.194z"/>
	<path fill="none" stroke="#BCBEC0" stroke-miterlimit="10" d="M-2621.032,720.194c0,8.25-6.75,15-15,15h-303.73
		c-8.25,0-15-6.75-15-15v-141.51c0-8.25,6.75-15,15-15h303.73c8.25,0,15,6.75,15,15V720.194z"/>
</g>
<g>
	<text transform="matrix(1 0 0 1 -2922.0071 614.3138)" fill="#57BE89" font-family="'Rubik-Regular'" font-size="21.2374">CATEGORIES</text>
</g>
<g>
	<text transform="matrix(1 0 0 1 -2922.0078 684.8918)" fill="#4A494A" font-family="'Rubik-Regular'" font-size="49.301">25</text>
</g>
<path fill="#B5B5B6" d="M-3339.489,578.226h11.571c0.496,0,0.891-0.396,0.891-0.887c0-0.492-0.395-0.891-0.891-0.891h-11.571
	c-0.491,0-0.891,0.399-0.891,0.891C-3340.38,577.83-3339.98,578.226-3339.489,578.226L-3339.489,578.226z M-3339.489,578.226
	 M-3316.342,581.79h-23.147c-0.491,0-0.891,0.395-0.891,0.887c0,0.491,0.401,0.89,0.891,0.89h23.147c0.491,0,0.891-0.399,0.891-0.89
	C-3315.451,582.185-3315.851,581.79-3316.342,581.79L-3316.342,581.79z M-3316.342,581.79 M-3316.342,587.128h-23.147
	c-0.491,0-0.891,0.399-0.891,0.89c0,0.492,0.401,0.891,0.891,0.891h23.147c0.491,0,0.891-0.399,0.891-0.891
	C-3315.451,587.528-3315.851,587.128-3316.342,587.128L-3316.342,587.128z M-3316.342,587.128 M-3300.256,558.328l-30.394-0.061
	c-2.627,0-4.765,2.136-4.765,4.761v5.079l-7.699,0.015c-2.626,0-4.762,2.138-4.762,4.766v18.817c0,2.628,2.136,4.766,4.761,4.766
	h5.924v9.418c0,0.153,0.097,0.293,0.242,0.35c0.155,0.059,0.31,0.009,0.411-0.101l8.786-9.671l15.028-0.062
	c2.63,0,4.767-2.136,4.767-4.761v-1.333l0.897,0.886l4.682,5.151c0.098,0.105,0.231,0.163,0.418,0.094
	c0.137-0.052,0.232-0.192,0.232-0.347v-9.418h1.472c2.626,0,4.761-2.136,4.761-4.761v-18.822
	C-3295.493,560.47-3297.629,558.333-3300.256,558.328z M-3309.222,591.644c0,1.931-1.569,3.5-3.499,3.5l-15.197,0.06
	c-0.251,0-0.491,0.109-0.655,0.292l-7.355,8.09v-7.49c0-0.491-0.395-0.891-0.891-0.891h-6.294c-1.925,0-3.494-1.569-3.494-3.499
	v-18.817c0-1.931,1.569-3.5,3.499-3.5l8.072-0.017l22.317-0.048c1.93,0,3.499,1.569,3.499,3.499V591.644z M-3296.756,581.912h-0.004
	c0,1.931-1.569,3.5-3.494,3.5h-1.843c-0.496,0-0.891,0.399-0.891,0.89v7.49l-4.451-4.895v-16.074c0-2.908-2.369-5.277-5.281-5.277
	l-21.426,0.043v-4.56c0-1.93,1.569-3.499,3.494-3.499l30.393,0.064h0.004c1.93,0,3.499,1.57,3.499,3.5V581.912z M-3300.253,557.298
	l-30.395-0.061c-3.196,0-5.797,2.598-5.797,5.792v4.05l-6.67,0.013c-3.194,0-5.792,2.6-5.792,5.797v18.817
	c0,3.196,2.598,5.797,5.792,5.797h4.893v8.387c0,0.573,0.36,1.099,0.905,1.313c0.167,0.062,0.334,0.094,0.497,0.094
	c0.391,0,0.77-0.167,1.042-0.461l8.485-9.339l14.572-0.06c2.795,0,5.135-1.988,5.677-4.69l3.908,4.299
	c0.382,0.41,0.956,0.576,1.539,0.361c0.539-0.205,0.901-0.732,0.901-1.312v-8.387h0.441c3.194,0,5.792-2.598,5.792-5.792v-18.822
	C-3294.462,559.903-3297.06,557.303-3300.253,557.298z M-3294.978,581.916c0,2.908-2.369,5.277-5.277,5.277h-0.957v8.902
	c0,0.369-0.226,0.7-0.569,0.83c-0.104,0.039-0.214,0.061-0.317,0.061c-0.248,0-0.487-0.105-0.661-0.292l-4.681-5.151v0.1
	c0,2.912-2.369,5.277-5.281,5.277l-14.801,0.061l-8.637,9.507c-0.174,0.187-0.413,0.292-0.661,0.292
	c-0.104,0-0.213-0.022-0.317-0.061c-0.343-0.135-0.569-0.465-0.569-0.83v-8.902h-5.408c-2.908,0-5.277-2.369-5.277-5.281v-18.817
	c0-2.912,2.369-5.281,5.277-5.281l7.185-0.013v-4.565c0-2.908,2.369-5.277,5.281-5.277l30.393,0.061
	c2.908,0.004,5.277,2.369,5.277,5.281V581.916z M-3300.255,557.813l-30.393-0.061c-2.912,0-5.281,2.369-5.281,5.277v4.565
	l-7.185,0.013c-2.908,0-5.277,2.369-5.277,5.281v18.817c0,2.912,2.369,5.281,5.277,5.281h5.408v8.902
	c0,0.365,0.226,0.695,0.569,0.83c0.104,0.039,0.214,0.061,0.317,0.061c0.248,0,0.487-0.105,0.661-0.292l8.637-9.507l14.801-0.061
	c2.912,0,5.281-2.365,5.281-5.277v-0.1l4.681,5.151c0.174,0.187,0.413,0.292,0.661,0.292c0.104,0,0.213-0.022,0.317-0.061
	c0.343-0.13,0.569-0.461,0.569-0.83v-8.902h0.957c2.908,0,5.277-2.369,5.277-5.277v-18.822
	C-3294.978,560.182-3297.347,557.818-3300.255,557.813z M-3295.493,581.916c0,2.626-2.136,4.761-4.761,4.761h-1.472v9.418
	c0,0.155-0.095,0.294-0.232,0.347c-0.187,0.069-0.32,0.011-0.418-0.094l-4.682-5.151l-0.897-0.886v1.333
	c0,2.626-2.138,4.761-4.767,4.761l-15.028,0.062l-8.786,9.671c-0.102,0.11-0.257,0.16-0.411,0.101
	c-0.145-0.057-0.242-0.198-0.242-0.35v-9.418h-5.924c-2.625,0-4.761-2.138-4.761-4.766v-18.817c0-2.628,2.136-4.766,4.762-4.766
	l7.699-0.015v-5.079c0-2.626,2.138-4.761,4.765-4.761l30.394,0.061c2.626,0.004,4.762,2.142,4.762,4.766V581.916z"/>
<path stroke="#000000" stroke-miterlimit="10" d="M-3400.729,581.461"/>
<g>
	<g>
		<path fill="#B5B5B6" d="M-3308.025,992.98v-23.521h-35.107v43.883h16.149c1.159,0,2.107,0.948,2.107,2.106
			c0,1.158-0.948,2.107-2.107,2.107h-18.255c-1.159,0-2.107-0.948-2.107-2.107v-48.095c0-1.159,0.948-2.107,2.107-2.107h39.319
			c1.158,0,2.106,0.948,2.106,2.107v25.627c0,1.158-0.948,2.107-2.106,2.107C-3307.078,995.086-3308.025,994.138-3308.025,992.98
			L-3308.025,992.98z M-3297.177,998.105c-0.877-0.772-2.211-0.702-2.984,0.175l-11.551,12.849l-5.792-5.582
			c-0.842-0.807-2.177-0.772-2.984,0.071c-0.807,0.842-0.772,2.177,0.071,2.984l7.372,7.092c0.386,0.386,0.913,0.596,1.474,0.596
			h0.07c0.562-0.035,1.124-0.281,1.475-0.702l12.989-14.464C-3296.229,1000.211-3296.3,998.878-3297.177,998.105L-3297.177,998.105z
			 M-3315.748,977.533h-18.957c-1.159,0-2.107,0.948-2.107,2.106c0,1.159,0.948,2.107,2.107,2.107h18.957
			c1.158,0,2.106-0.948,2.106-2.107C-3313.642,978.481-3314.59,977.533-3315.748,977.533L-3315.748,977.533z M-3313.642,991.224
			c0-1.158-0.948-2.106-2.106-2.106h-18.957c-1.159,0-2.107,0.948-2.107,2.106c0,1.159,0.948,2.107,2.107,2.107h18.957
			C-3314.59,993.331-3313.642,992.383-3313.642,991.224L-3313.642,991.224z M-3334.705,1000.352c-1.159,0-2.107,0.948-2.107,2.107
			c0,1.158,0.948,2.106,2.107,2.106h5.617c1.158,0,2.106-0.948,2.106-2.106c0-1.159-0.948-2.107-2.106-2.107H-3334.705z
			 M-3334.705,1000.352"/>
	</g>
</g>
<g>
	<linearGradient id="SVGID_1_" gradientUnits="userSpaceOnUse" x1="-3350.4985" y1="884.0898" x2="-3299.1653" y2="884.0898">
		<stop  offset="0" style="stop-color:#F47932"/>
		<stop  offset="0.4839" style="stop-color:#F05051"/>
		<stop  offset="1" style="stop-color:#ED2472"/>
	</linearGradient>
	<linearGradient id="SVGID_2_" gradientUnits="userSpaceOnUse" x1="-3350.9985" y1="884.0898" x2="-3298.6653" y2="884.0898">
		<stop  offset="0" style="stop-color:#F47932"/>
		<stop  offset="0.4839" style="stop-color:#F05051"/>
		<stop  offset="1" style="stop-color:#ED2472"/>
	</linearGradient>
	<path fill="url(#SVGID_1_)" stroke="url(#SVGID_2_)" stroke-miterlimit="10" d="M-3304.766,858.423
		c-3.085,0-5.601,2.511-5.601,5.601c0,0.966,0.246,1.873,0.679,2.671l-9.174,9.173c-1.262-0.989-2.848-1.576-4.571-1.576
		c-1.722,0-3.304,0.587-4.571,1.571l-7.159-7.155c0.333-0.555,0.533-1.194,0.533-1.887c0-2.059-1.677-3.732-3.738-3.732
		c-2.054,0-3.732,1.673-3.732,3.732c0,2.06,1.677,3.732,3.732,3.732c0.693,0,1.331-0.199,1.888-0.529l7.159,7.16
		c-0.983,1.267-1.576,2.848-1.576,4.571c0,1.723,0.593,3.304,1.576,4.571l-11.821,11.822c-0.994-0.903-2.311-1.458-3.756-1.458
		c-3.09,0-5.601,2.511-5.601,5.601c0,3.085,2.511,5.595,5.601,5.595c3.085,0,5.601-2.511,5.601-5.595
		c0-0.967-0.246-1.878-0.679-2.672l11.971-11.976c1.035,0.806,2.279,1.344,3.641,1.513v9.484c-2.647,0.446-4.667,2.743-4.667,5.514
		c0,3.091,2.512,5.601,5.596,5.601c3.091,0,5.601-2.511,5.601-5.601c0-2.766-2.023-5.068-4.667-5.514v-9.484
		c1.363-0.169,2.606-0.707,3.641-1.513l7.155,7.16c-0.328,0.555-0.529,1.193-0.529,1.886c0,2.059,1.672,3.732,3.732,3.732
		s3.732-1.673,3.732-3.732c0-2.06-1.672-3.732-3.732-3.732c-0.693,0-1.331,0.2-1.882,0.529l-7.16-7.16
		c0.985-1.267,1.577-2.848,1.577-4.571c0-1.723-0.593-3.304-1.577-4.571l9.018-9.018c0.994,0.902,2.311,1.458,3.756,1.458
		c3.091,0,5.601-2.517,5.601-5.601C-3299.165,860.934-3301.676,858.423-3304.766,858.423L-3304.766,858.423z M-3340.231,866.822
		c0-1.03,0.839-1.863,1.863-1.863c1.03,0,1.869,0.833,1.869,1.863c0,1.03-0.839,1.869-1.869,1.869
		C-3339.392,868.691-3340.231,867.852-3340.231,866.822L-3340.231,866.822z M-3344.897,906.024c-2.06,0-3.732-1.678-3.732-3.732
		c0-2.06,1.672-3.738,3.732-3.738c2.059,0,3.732,1.678,3.732,3.738C-3341.165,904.347-3342.838,906.024-3344.897,906.024
		L-3344.897,906.024z M-3319.701,904.155c0,2.06-1.672,3.732-3.732,3.732c-2.059,0-3.732-1.672-3.732-3.732
		c0-2.059,1.673-3.732,3.732-3.732C-3321.373,900.423-3319.701,902.096-3319.701,904.155L-3319.701,904.155z M-3323.433,887.358
		c-3.085,0-5.601-2.512-5.601-5.601c0-3.089,2.516-5.601,5.601-5.601c3.091,0,5.601,2.512,5.601,5.601
		C-3317.832,884.846-3320.343,887.358-3323.433,887.358L-3323.433,887.358z M-3306.63,896.691c0,1.03-0.839,1.863-1.869,1.863
		c-1.03,0-1.869-0.833-1.869-1.863c0-1.03,0.839-1.869,1.869-1.869C-3307.469,894.822-3306.63,895.661-3306.63,896.691
		L-3306.63,896.691z M-3304.766,867.756c-2.059,0-3.732-1.673-3.732-3.732c0-2.06,1.673-3.732,3.732-3.732
		c2.06,0,3.732,1.672,3.732,3.732C-3301.034,866.083-3302.706,867.756-3304.766,867.756L-3304.766,867.756z M-3304.766,867.756"/>
</g>
<g>
	<linearGradient id="SVGID_3_" gradientUnits="userSpaceOnUse" x1="-2949.9783" y1="459.6021" x2="-2910.5469" y2="508.2554">
		<stop  offset="0" style="stop-color:#F47932"/>
		<stop  offset="0.4839" style="stop-color:#F05051"/>
		<stop  offset="1" style="stop-color:#ED2472"/>
	</linearGradient>
	<path fill="url(#SVGID_3_)" d="M-2907.56,481.6c0,13.525-11.066,24.59-24.59,24.59c-13.525,0-24.591-11.066-24.591-24.59
		c0-13.525,11.066-24.59,24.591-24.59C-2918.625,457.009-2907.56,468.075-2907.56,481.6z"/>
</g>
<g>
	<g>
		<path fill="#FFFFFF" d="M-2932.15,467.544c-1.088,0-1.979,1.8-1.979,4v20.111c0,2.2,0.89,4,1.979,4c1.088,0,1.979-1.8,1.979-4
			v-20.111C-2930.172,469.344-2931.062,467.544-2932.15,467.544z"/>
	</g>
	<g>
		<path fill="#FFFFFF" d="M-2946.206,481.6c0-1.088,1.8-1.979,4-1.979h20.111c2.2,0,4,0.89,4,1.979c0,1.088-1.8,1.979-4,1.979
			h-20.111C-2944.406,483.578-2946.206,482.688-2946.206,481.6z"/>
	</g>
</g>
<g>
	<path fill="#FFFFFF" d="M-3644.069,2414.065c0,8.25-6.75,15-15,15h-940.976c-8.25,0-15-6.75-15-15V1368.689c0-8.25,6.75-15,15-15
		h940.976c8.25,0,15,6.75,15,15V2414.065z"/>
	<path fill="none" stroke="#BCBEC0" stroke-miterlimit="10" d="M-3644.069,2414.065c0,8.25-6.75,15-15,15h-940.976
		c-8.25,0-15-6.75-15-15V1368.689c0-8.25,6.75-15,15-15h940.976c8.25,0,15,6.75,15,15V2414.065z"/>
</g>
<g>
	<text transform="matrix(1 0 0 1 -4558.4375 1533.1951)" fill="#B5B5B6" font-family="'Nunito-Bold'" font-size="21.6288">TYPE</text>
</g>
<g>
	<g>
		<g>
			<text transform="matrix(1 0 0 1 -4558.4365 1432.3748)" fill="#F05051" font-family="'Nunito-Bold'" font-size="34.606">Profile Details</text>
		</g>
	</g>
</g>
<rect x="-4558.437" y="1617.827" opacity="0.5" fill="none" stroke="#BCBEC0" stroke-miterlimit="10" width="369.367" height="0.865"/>
<g>
	<g>
		<g>
			<text transform="matrix(1 0 0 1 -4558.4365 1598.0408)" fill="#4A494A" font-family="'Nunito-Bold'" font-size="30.2803">Millwoods Dental</text>
		</g>
	</g>
</g>
<rect x="-2944.445" y="1822.224" opacity="0.5" fill="none" stroke="#BCBEC0" stroke-miterlimit="10" width="828.604" height="0.865"/>
<rect x="-3010" y="804.422" opacity="0.5" fill="none" stroke="#BCBEC0" stroke-miterlimit="10" width="1211" height="0.865"/>
<g>
	<g>
		<g>
			<text transform="matrix(1 0 0 1 -2910.0466 2095.7742)" fill="#808285" font-family="'Rubik-Regular'" font-size="25">Area of expetise :</text>
		</g>
	</g>
</g>
<g>
	<g>
		<g>
			<text transform="matrix(1 0 0 1 -2691.8606 2095.7739)" fill="#F05051" font-family="'Rubik-Regular'" font-size="25">+ Add</text>
		</g>
	</g>
</g>
<g>
	<g>
		<g>
			<text transform="matrix(1 0 0 1 -2945.531 1075.8177)" fill="#808285" font-family="'Rubik-Regular'" font-size="25">Category Name</text>
		</g>
	</g>
</g>
<g>
	<g>
		<g>
			<text transform="matrix(1 0 0 1 -2949.6035 1281.5959)" fill="#808285" font-family="'Rubik-Regular'" font-size="25">Category Icon</text>
		</g>
	</g>
</g>
<g>
	<text transform="matrix(1 0 0 1 -4551.5166 1706.4417)" fill="#B5B5B6" font-family="'Nunito-Bold'" font-size="21.6288">STREET ADDRESS</text>
</g>
<rect x="-4551.515" y="1791.076" opacity="0.5" fill="none" stroke="#BCBEC0" stroke-miterlimit="10" width="369.367" height="0.865"/>
<g>
	<g>
		<g>
			<text transform="matrix(1 0 0 1 -4551.5156 1771.2902)" fill="#4A494A" font-family="'Nunito-Bold'" font-size="30.2803">123 Whitemud Avenue</text>
		</g>
	</g>
</g>
<g>
	<text transform="matrix(1 0 0 1 -4100.0752 1706.4417)" fill="#B5B5B6" font-family="'Nunito-Bold'" font-size="21.6288">CITY</text>
</g>
<rect x="-4100.075" y="1791.076" opacity="0.5" fill="none" stroke="#BCBEC0" stroke-miterlimit="10" width="369.367" height="0.865"/>
<g>
	<g>
		<g>
			<text transform="matrix(1 0 0 1 -4100.0752 1771.2893)" fill="#4A494A" font-family="'Nunito-Bold'" font-size="30.2803">Edmonton</text>
		</g>
	</g>
</g>
<g>
	<text transform="matrix(1 0 0 1 -4551.5166 1889.3479)" fill="#B5B5B6" font-family="'Nunito-Bold'" font-size="21.6288">PROVINCE / STATE</text>
</g>
<rect x="-4551.516" y="1973.982" opacity="0.5" fill="none" stroke="#BCBEC0" stroke-miterlimit="10" width="369.367" height="0.865"/>
<g>
	<g>
		<g>
			<text transform="matrix(1 0 0 1 -4551.5166 1954.1945)" fill="#4A494A" font-family="'Nunito-Bold'" font-size="30.2803">AB - Alberta</text>
		</g>
	</g>
</g>
<g>
	<text transform="matrix(1 0 0 1 -4548.2686 2062.7383)" fill="#B5B5B6" font-family="'Nunito-Bold'" font-size="21.6288">POSTAL CODE</text>
</g>
<rect x="-4548.268" y="2147.371" opacity="0.5" fill="none" stroke="#BCBEC0" stroke-miterlimit="10" width="369.367" height="0.865"/>
<g>
	<g>
		<g>
			<text transform="matrix(1 0 0 1 -4548.2686 2127.5842)" fill="#4A494A" font-family="'Nunito-Bold'" font-size="30.2803">T6K 2M1</text>
		</g>
	</g>
</g>
<g>
	<text transform="matrix(1 0 0 1 -4548.2686 2252.1973)" fill="#B5B5B6" font-family="'Nunito-Bold'" font-size="21.6288">PHONE NUMBER</text>
</g>
<rect x="-4548.268" y="2336.83" opacity="0.5" fill="none" stroke="#BCBEC0" stroke-miterlimit="10" width="369.367" height="0.865"/>
<g>
	<g>
		<g>
			<text transform="matrix(1 0 0 1 -4548.2686 2317.0432)" fill="#4A494A" font-family="'Nunito-Bold'" font-size="30.2803">+1 780-288-9773</text>
		</g>
	</g>
</g>
<g>
	<text transform="matrix(1 0 0 1 -4100.0762 1889.3479)" fill="#B5B5B6" font-family="'Nunito-Bold'" font-size="21.6288">COUNTRY</text>
</g>
<rect x="-4100.075" y="1973.981" opacity="0.5" fill="none" stroke="#BCBEC0" stroke-miterlimit="10" width="369.367" height="0.865"/>
<g>
	<g>
		<g>
			<text transform="matrix(1 0 0 1 -4100.0762 1954.1936)" fill="#4A494A" font-family="'Nunito-Bold'" font-size="30.2803">Canada</text>
		</g>
	</g>
</g>
<path fill="#3BB772" d="M-4186.799,2295.46c-0.946-0.946-2.512-0.912-3.5,0.076l-13.792,13.793l-5.667-5.667
	c-0.526-0.526-1.681-0.229-2.577,0.667c-0.896,0.896-1.197,2.055-0.671,2.581l8.114,8.113c0.49,0.49,1.523,0.254,2.387-0.502
	c0.146-0.096,0.284-0.207,0.412-0.335l15.223-15.222C-4185.883,2297.977-4185.853,2296.406-4186.799,2295.46z"/>
<g>
	<text transform="matrix(1 0 0 1 -4100.0752 2252.0239)" fill="#B5B5B6" font-family="'Nunito-Bold'" font-size="21.6288">GENDER</text>
</g>
<text transform="matrix(1 0 0 1 -3884.0273 1432.3741)" fill="#3BB772" font-family="'Nunito-Bold'" font-size="31.0486">EDIT</text>
<text transform="matrix(1 0 0 1 -3778.917 1432.3741)" fill="#B5B5B6" font-family="'Nunito-Bold'" font-size="31.0486">SAVE</text>
<g>
	<g>
		<g>
			<text transform="matrix(1 0 0 1 -3848.8923 2321.5879)" fill="#D1D3D4" font-family="'Nunito-Bold'" font-size="30">Female</text>
		</g>
	</g>
</g>
<g>
	<g>
		<g>
			<text transform="matrix(1 0 0 1 -4041.8303 2323.5874)" fill="#4A494A" font-family="'Nunito-Bold'" font-size="30">Male</text>
		</g>
	</g>
</g>
<g>
	<linearGradient id="SVGID_4_" gradientUnits="userSpaceOnUse" x1="-4099.8301" y1="2312.281" x2="-4059.8301" y2="2312.281">
		<stop  offset="0" style="stop-color:#F47932"/>
		<stop  offset="0.4839" style="stop-color:#F05051"/>
		<stop  offset="1" style="stop-color:#ED2472"/>
	</linearGradient>
	<path fill="url(#SVGID_4_)" d="M-4059.83,2312.281c0,11-9,20-20,20s-20-9-20-20s9-20,20-20S-4059.83,2301.281-4059.83,2312.281z"/>
	<linearGradient id="SVGID_5_" gradientUnits="userSpaceOnUse" x1="-4101.8301" y1="2312.281" x2="-4057.8301" y2="2312.281">
		<stop  offset="0" style="stop-color:#F47932"/>
		<stop  offset="0.4839" style="stop-color:#F05051"/>
		<stop  offset="1" style="stop-color:#ED2472"/>
	</linearGradient>
	<path fill="none" stroke="url(#SVGID_5_)" stroke-width="4" stroke-miterlimit="10" d="M-4059.83,2312.281c0,11-9,20-20,20
		s-20-9-20-20s9-20,20-20S-4059.83,2301.281-4059.83,2312.281z"/>
</g>
<g>
	<path fill="none" stroke="#D1D3D4" stroke-width="4" stroke-miterlimit="10" d="M-3869.83,2312.281c0,11-9,20-20,20s-20-9-20-20
		s9-20,20-20S-3869.83,2301.281-3869.83,2312.281z"/>
</g>
<path fill="#FFFFFF" d="M-4069.569,2304.8c-0.74-0.74-1.964-0.713-2.737,0.06l-10.786,10.786l-4.432-4.432
	c-0.411-0.411-1.314-0.179-2.015,0.522c-0.701,0.701-0.936,1.607-0.525,2.018l6.345,6.345c0.384,0.384,1.192,0.199,1.867-0.393
	c0.114-0.075,0.222-0.161,0.322-0.261l11.904-11.904C-4068.853,2306.768-4068.829,2305.539-4069.569,2304.8z"/>
<g>
	<text transform="matrix(1 0 0 1 -4339.4595 2737.7593)" fill="#57BE89" font-family="'Nunito-ExtraBold'" font-size="35">SAVE</text>
</g>
<g opacity="0.2">
	<text transform="matrix(1 0 0 1 -4199.687 2737.7593)" font-family="'Nunito-ExtraBold'" font-size="35">DELETE</text>
</g>
<g>
	<linearGradient id="SVGID_6_" gradientUnits="userSpaceOnUse" x1="-3365.2505" y1="330.354" x2="-3160.4021" y2="330.354">
		<stop  offset="0" style="stop-color:#F47932"/>
		<stop  offset="0.4839" style="stop-color:#F05051"/>
		<stop  offset="1" style="stop-color:#ED2472"/>
	</linearGradient>
	<path fill="url(#SVGID_6_)" d="M-3359.186,324.341c1.718-2.779,4.245-4.143,7.58-4.143c7.125,0.253,10.662,4.901,10.662,13.997
		c0,8.894-4.144,13.391-12.431,13.542c-8.338,0.051-12.531-3.941-12.531-11.976v-22.789h3.385c2.223,0,3.335,1.162,3.335,3.386
		V324.341z M-3359.186,333.891c-0.051,5.407,1.769,8.135,5.609,8.135c3.841,0,5.76-2.729,5.76-8.135
		c-0.152-5.154-2.021-7.681-5.659-7.681C-3357.115,326.21-3358.984,328.737-3359.186,333.891z"/>
	<linearGradient id="SVGID_7_" gradientUnits="userSpaceOnUse" x1="-3365.2505" y1="330.1517" x2="-3160.4021" y2="330.1517">
		<stop  offset="0" style="stop-color:#F47932"/>
		<stop  offset="0.4839" style="stop-color:#F05051"/>
		<stop  offset="1" style="stop-color:#ED2472"/>
	</linearGradient>
	<path fill="url(#SVGID_7_)" d="M-3334.429,312.971c2.223,0,3.285,1.112,3.234,3.284v1.971h-6.72v-5.255H-3334.429z
		 M-3334.429,320.601c2.173,0,3.234,1.061,3.234,3.234v23.497h-6.72v-26.731H-3334.429z"/>
	<linearGradient id="SVGID_8_" gradientUnits="userSpaceOnUse" x1="-3365.2505" y1="333.9667" x2="-3160.4021" y2="333.9667">
		<stop  offset="0" style="stop-color:#F47932"/>
		<stop  offset="0.4839" style="stop-color:#F05051"/>
		<stop  offset="1" style="stop-color:#ED2472"/>
	</linearGradient>
	<path fill="url(#SVGID_8_)" d="M-3326.597,322.774v-2.173h21.88v5.71l-14.199,15.21h14.604v5.811h-23.093v-5.306l14.3-15.816
		h-10.056C-3325.132,326.21-3326.597,324.745-3326.597,322.774z"/>
	<linearGradient id="SVGID_9_" gradientUnits="userSpaceOnUse" x1="-3365.2505" y1="330.354" x2="-3160.4021" y2="330.354">
		<stop  offset="0" style="stop-color:#F47932"/>
		<stop  offset="0.4839" style="stop-color:#F05051"/>
		<stop  offset="1" style="stop-color:#ED2472"/>
	</linearGradient>
	<path fill="url(#SVGID_9_)" d="M-3294.058,324.341c1.718-2.779,4.245-4.143,7.58-4.143c7.125,0.253,10.662,4.901,10.662,13.997
		c0,8.894-4.144,13.391-12.431,13.542c-8.338,0.051-12.531-3.941-12.531-11.976v-22.789h3.385c2.223,0,3.335,1.162,3.335,3.386
		V324.341z M-3294.058,333.891c-0.051,5.407,1.769,8.135,5.609,8.135c3.841,0,5.76-2.729,5.76-8.135
		c-0.152-5.154-2.021-7.681-5.659-7.681C-3291.986,326.21-3293.855,328.737-3294.058,333.891z"/>
	<linearGradient id="SVGID_10_" gradientUnits="userSpaceOnUse" x1="-3365.2505" y1="334.2194" x2="-3160.4021" y2="334.2194">
		<stop  offset="0" style="stop-color:#F47932"/>
		<stop  offset="0.4839" style="stop-color:#F05051"/>
		<stop  offset="1" style="stop-color:#ED2472"/>
	</linearGradient>
	<path fill="url(#SVGID_10_)" d="M-3250.3,336.67c0,4.598-1.163,7.63-3.538,9.096c-2.375,1.364-5.002,2.072-7.883,2.072
		c-2.779,0-5.256-0.758-7.58-2.274c-2.324-1.465-3.486-4.396-3.486-8.894v-16.069h6.72v17.433c0,2.981,1.516,4.447,4.548,4.447
		c3.032,0,4.548-1.465,4.548-4.447v-14.098c-0.051-2.223,1.011-3.335,3.234-3.335h3.436V336.67z"/>
	<linearGradient id="SVGID_11_" gradientUnits="userSpaceOnUse" x1="-3365.2505" y1="333.7646" x2="-3160.4021" y2="333.7646">
		<stop  offset="0" style="stop-color:#F47932"/>
		<stop  offset="0.4839" style="stop-color:#F05051"/>
		<stop  offset="1" style="stop-color:#ED2472"/>
	</linearGradient>
	<path fill="url(#SVGID_11_)" d="M-3228.019,347.332c-2.223-0.152-3.335-1.213-3.335-3.335v-13.744
		c-0.152-2.779-1.668-4.144-4.649-4.144c-2.982,0-4.498,1.364-4.548,4.144v17.079h-6.822v-15.715c0-7.63,3.84-11.42,11.47-11.42
		s11.369,3.79,11.319,11.42v15.715H-3228.019z"/>
	<linearGradient id="SVGID_12_" gradientUnits="userSpaceOnUse" x1="-3365.2505" y1="330.354" x2="-3160.4021" y2="330.354">
		<stop  offset="0" style="stop-color:#F47932"/>
		<stop  offset="0.4839" style="stop-color:#F05051"/>
		<stop  offset="1" style="stop-color:#ED2472"/>
	</linearGradient>
	<path fill="url(#SVGID_12_)" d="M-3196.894,316.357v19.404c0,8.035-4.194,12.026-12.532,11.976
		c-8.287-0.152-12.431-4.649-12.431-13.542c0-9.096,3.538-13.744,10.662-13.997c3.335,0,5.912,1.364,7.63,4.143v-11.369h3.335
		C-3198.41,312.971-3196.894,314.537-3196.894,316.357z M-3214.933,333.891c-0.051,5.407,1.768,8.135,5.609,8.135
		c3.84,0,5.76-2.729,5.76-8.135c-0.152-5.154-2.021-7.681-5.66-7.681C-3212.862,326.21-3214.731,328.737-3214.933,333.891z"/>
	<linearGradient id="SVGID_13_" gradientUnits="userSpaceOnUse" x1="-3365.2505" y1="330.1517" x2="-3160.4021" y2="330.1517">
		<stop  offset="0" style="stop-color:#F47932"/>
		<stop  offset="0.4839" style="stop-color:#F05051"/>
		<stop  offset="1" style="stop-color:#ED2472"/>
	</linearGradient>
	<path fill="url(#SVGID_13_)" d="M-3187.144,316.256v31.077h-6.72v-34.361h3.486
		C-3188.609,312.971-3187.144,314.487-3187.144,316.256z"/>
	<linearGradient id="SVGID_14_" gradientUnits="userSpaceOnUse" x1="-3365.2505" y1="334.0678" x2="-3160.4021" y2="334.0678">
		<stop  offset="0" style="stop-color:#F47932"/>
		<stop  offset="0.4839" style="stop-color:#F05051"/>
		<stop  offset="1" style="stop-color:#ED2472"/>
	</linearGradient>
	<path fill="url(#SVGID_14_)" d="M-3171.429,347.939c-8.085-0.253-12.128-4.952-12.128-14.048c0-9.096,4.093-13.643,12.229-13.694
		c8.489,0,12.481,5.205,11.976,15.665h-17.282c0.253,4.093,2.021,6.165,5.306,6.165c1.567,0,3.032-0.657,4.345-1.92
		c0.607-0.657,1.364-0.96,2.274-0.96h4.952C-3161.222,344.806-3164.86,347.939-3171.429,347.939z M-3176.533,331.061h10.055
		c-0.404-3.537-2.071-5.356-4.951-5.356C-3174.31,325.705-3176.028,327.524-3176.533,331.061z"/>
</g>
<g opacity="0.5">
	<path fill="none" stroke="#BCBEC0" stroke-width="2" stroke-miterlimit="10" d="M-2115.842,2629.385c0,8.25-6.75,15-15,15h-802.042
		c-8.25,0-15-6.75-15-15v-889.282c0-8.25,6.75-15,15-15h802.042c8.25,0,15,6.75,15,15V2629.385z"/>
</g>
<g opacity="0.5">
	<path fill="none" stroke="#BCBEC0" stroke-width="2" stroke-miterlimit="10" d="M-2119.281,1180.702c0,8.25-6.75,15-15,15h-799.251
		c-8.25,0-15-6.75-15-15v-51.679c0-8.25,6.75-15,15-15h799.251c8.25,0,15,6.75,15,15V1180.702z"/>
</g>
<rect x="-2910.047" y="2201.716" opacity="0.5" fill="none" stroke="#BCBEC0" stroke-miterlimit="10" width="742.415" height="0.865"/>
<g>
	<g>
		<g>
			<text transform="matrix(1 0 0 1 -2910.0466 2181.9309)" fill="#4A494A" font-family="'Rubik-Regular'" font-size="30">Endurance</text>
		</g>
	</g>
</g>
<g>
	<g>
		<g>
			<text transform="matrix(1 0 0 1 -2255.0466 2180.9609)" fill="#F05051" font-family="'Rubik-Regular'" font-size="25">Remove</text>
		</g>
	</g>
</g>
<g>
	<g>
		<g>
			<text transform="matrix(1 0 0 1 -2399.3416 1780.9608)" fill="#57BE8A" font-family="'Rubik-Regular'" font-size="25">Save</text>
		</g>
	</g>
</g>
<g>
	<g>
		<g>
			<text transform="matrix(1 0 0 1 -2310.8459 1780.9609)" fill="#F05051" font-family="'Rubik-Regular'" font-size="25">Delete</text>
		</g>
	</g>
</g>
<g>
	<g>
		<g>
			<text transform="matrix(1 0 0 1 -2628.8459 1447.1528)" fill="#F05051" font-family="'Rubik-Regular'" font-size="25">Remove Icon</text>
		</g>
	</g>
</g>
<g>
	<g>
		<g>
			<text transform="matrix(1 0 0 1 -2910.0469 1897.0291)" fill="#808285" font-family="'Rubik-Regular'" font-size="25">Sub-category : </text>
		</g>
	</g>
</g>
<rect x="-2910.047" y="1997.063" opacity="0.5" fill="none" stroke="#BCBEC0" stroke-miterlimit="10" width="604.415" height="0.865"/>
<g>
	<g>
		<g>
			<text transform="matrix(1 0 0 1 -2910.0466 1977.2773)" fill="#4A494A" font-family="'Rubik-Regular'" font-size="30">Fitness Trainer</text>
		</g>
	</g>
</g>
<g>
	<g>
		<g>
			<text transform="matrix(1.0196 0 0 1 -2916.856 1783.9607)" fill="#4A494A" font-family="'Rubik-Regular'" font-size="30">1. Fitness Trainer</text>
		</g>
	</g>
</g>
<g>
	<g>
		<g>
			<text transform="matrix(1.0196 0 0 1 -2920.2947 1164.9617)" fill="#4A494A" font-family="'Rubik-Regular'" font-size="30">Health &amp; Fitness</text>
		</g>
	</g>
</g>
<g>
	<g>
		<g>
			<text transform="matrix(1 0 0 1 -2255.0466 2294.9614)" fill="#F05051" font-family="'Rubik-Regular'" font-size="25">Remove</text>
		</g>
	</g>
</g>
<g>
	<g>
		<g>
			<text transform="matrix(1 0 0 1 -2255.0466 2413.0381)" fill="#F05051" font-family="'Rubik-Regular'" font-size="25">Remove</text>
		</g>
	</g>
</g>
<g>
	<g>
		<g>
			<text transform="matrix(1 0 0 1 -2255.0466 2527.0625)" fill="#F05051" font-family="'Rubik-Regular'" font-size="25">Remove</text>
		</g>
	</g>
</g>
<rect x="-2910.047" y="2315.716" opacity="0.5" fill="none" stroke="#BCBEC0" stroke-miterlimit="10" width="742.415" height="0.865"/>
<g>
	<g>
		<g>
			<text transform="matrix(1 0 0 1 -2910.0466 2295.9312)" fill="#4A494A" font-family="'Rubik-Regular'" font-size="30">Strength</text>
		</g>
	</g>
</g>
<rect x="-2910.047" y="2433.793" opacity="0.5" fill="none" stroke="#BCBEC0" stroke-miterlimit="10" width="742.415" height="0.865"/>
<g>
	<g>
		<g>
			<text transform="matrix(1 0 0 1 -2910.0466 2414.0078)" fill="#4A494A" font-family="'Rubik-Regular'" font-size="30">Muscle Building</text>
		</g>
	</g>
</g>
<rect x="-2910.047" y="2547.817" opacity="0.5" fill="none" stroke="#BCBEC0" stroke-miterlimit="10" width="742.415" height="0.865"/>
<g>
	<g>
		<g>
			<text transform="matrix(1 0 0 1 -2910.0466 2524.032)" fill="#4A494A" font-family="'Rubik-Regular'" font-size="30">Weight Loss</text>
		</g>
	</g>
</g>
<g>
	<path fill="#D1D3D4" d="M-2187.121,1786.547c-2.75,0-3.875-1.948-2.5-4.33l10.303-17.845c1.375-2.382,3.625-2.382,5,0
		l10.303,17.845c1.375,2.382,0.25,4.33-2.5,4.33H-2187.121z"/>
</g>
<g>
	<g>
		<g>
			<text transform="matrix(1 0 0 1 -2310.8459 2768.6682)" fill="#F05051" font-family="'Rubik-Regular'" font-size="25">Delete</text>
		</g>
	</g>
</g>
<g>
	<g>
		<g>
			<text transform="matrix(1.0196 0 0 1 -2916.856 2771.668)" fill="#4A494A" font-family="'Rubik-Regular'" font-size="30">2. Yoga Instructor</text>
		</g>
	</g>
</g>
<g>
	<path fill="#D1D3D4" d="M-2187.121,2747.749c-2.75,0-3.875,1.949-2.5,4.33l10.303,17.845c1.375,2.382,3.625,2.382,5,0
		l10.303-17.845c1.375-2.381,0.25-4.33-2.5-4.33H-2187.121z"/>
</g>
<g opacity="0.5">
	<path fill="none" stroke="#BCBEC0" stroke-width="2" stroke-miterlimit="10" d="M-2115.842,2930.888c0,8.25-6.75,15-15,15h-802.042
		c-8.25,0-15-6.75-15-15v-67.122c0-8.25,6.75-15,15-15h802.042c8.25,0,15,6.75,15,15V2930.888z"/>
</g>
<g>
	<g>
		<g>
			<text transform="matrix(1 0 0 1 -2310.8459 2904.6245)" fill="#F05051" font-family="'Rubik-Regular'" font-size="25">Delete</text>
		</g>
	</g>
</g>
<g>
	<g>
		<g>
			<text transform="matrix(1.0196 0 0 1 -2916.856 2907.6245)" fill="#4A494A" font-family="'Rubik-Regular'" font-size="30">3. Nutritionist</text>
		</g>
	</g>
</g>
<g>
	<path fill="#D1D3D4" d="M-2187.121,2883.705c-2.75,0-3.875,1.949-2.5,4.33l10.303,17.845c1.375,2.382,3.625,2.382,5,0
		l10.303-17.845c1.375-2.382,0.25-4.33-2.5-4.33H-2187.121z"/>
</g>
<g>
	<path fill="#57BE8A" d="M-2695.3,945.083c0,5.5-4.5,10-10,10h-230.906c-5.5,0-10-4.5-10-10v-46.245c0-5.5,4.5-10,10-10h230.906
		c5.5,0,10,4.5,10,10V945.083z"/>
</g>
<g>
	<text transform="matrix(1 0 0 1 -2913.4858 932.4973)" fill="#FFFFFF" font-family="'Rubik-Regular'" font-size="30">Save &amp; Close</text>
</g>
<g>
	<path fill="#F05051" d="M-2334.308,945.083c0,5.5-4.5,10-10,10h-297.468c-5.5,0-10-4.5-10-10v-46.245c0-5.5,4.5-10,10-10h297.468
		c5.5,0,10,4.5,10,10V945.083z"/>
</g>
<g>
	<text transform="matrix(1 0 0 1 -2596.1453 932.4974)" fill="#FFFFFF" font-family="'Rubik-Regular'" font-size="30">Delete Category</text>
</g>
<g>
	
		<image overflow="visible" opacity="0.25" width="1169" height="1169" xlink:href="2AB855CE.png"  transform="matrix(0.24 0 0 0.24 -2961.0027 1306.9028)">
	</image>
	<g>
		<g>
			<g>
				<path fill="#FFFFFF" d="M-2695.753,1552.153c0,11-9,20-20,20h-210c-11,0-20-9-20-20v-210c0-11,9-20,20-20h210c11,0,20,9,20,20
					V1552.153z"/>
				<path fill="none" stroke="#939393" stroke-width="0.5" stroke-miterlimit="10" d="M-2695.753,1552.153c0,11-9,20-20,20h-210
					c-11,0-20-9-20-20v-210c0-11,9-20,20-20h210c11,0,20,9,20,20V1552.153z"/>
			</g>
			<text transform="matrix(1 0 0 1 -2889.5381 1534.2089)" font-family="'Nunito-Regular'" font-size="25">Accounting</text>
		</g>
	</g>
</g>
<g>
	<linearGradient id="SVGID_15_" gradientUnits="userSpaceOnUse" x1="-2858.2632" y1="1421.5923" x2="-2789.103" y2="1421.5923">
		<stop  offset="0" style="stop-color:#F47932"/>
		<stop  offset="0.4839" style="stop-color:#F05051"/>
		<stop  offset="1" style="stop-color:#ED2472"/>
	</linearGradient>
	<path fill="url(#SVGID_15_)" d="M-2789.103,1398.911v66.824h-69.16v-88.285h47.692L-2789.103,1398.911z M-2809.71,1398.048h15.577
		l-15.577-15.577V1398.048z"/>
	<polygon fill="#EDEDED" points="-2853.233,1460.074 -2853.233,1383.11 -2813.375,1383.11 -2813.375,1402.351 -2794.134,1402.351 
		-2794.134,1460.074 	"/>
	<path d="M-2805.291,1412.777h-36.785c-0.813,0-1.473,0.653-1.473,1.464c0,0.82,0.66,1.473,1.473,1.473h36.785
		c0.811,0,1.473-0.653,1.473-1.473C-2803.817,1413.43-2804.479,1412.777-2805.291,1412.777L-2805.291,1412.777z M-2805.291,1412.777
		 M-2842.076,1403.947h14.714c0.811,0,1.473-0.662,1.473-1.473c0-0.811-0.662-1.473-1.473-1.473h-14.714
		c-0.813,0-1.473,0.662-1.473,1.473C-2843.549,1403.284-2842.889,1403.947-2842.076,1403.947L-2842.076,1403.947z
		 M-2842.076,1403.947 M-2805.291,1424.544h-36.785c-0.813,0-1.473,0.66-1.473,1.473c0,0.811,0.66,1.473,1.473,1.473h36.785
		c0.811,0,1.473-0.662,1.473-1.473C-2803.817,1425.205-2804.479,1424.544-2805.291,1424.544L-2805.291,1424.544z
		 M-2805.291,1424.544 M-2805.291,1436.312h-36.785c-0.813,0-1.473,0.662-1.473,1.473c0,0.813,0.66,1.473,1.473,1.473h36.785
		c0.811,0,1.473-0.66,1.473-1.473C-2803.817,1436.974-2804.479,1436.312-2805.291,1436.312L-2805.291,1436.312z M-2805.291,1436.312
		 M-2805.291,1448.089h-36.785c-0.813,0-1.473,0.653-1.473,1.473c0,0.811,0.66,1.464,1.473,1.464h36.785
		c0.811,0,1.473-0.653,1.473-1.464C-2803.817,1448.742-2804.479,1448.089-2805.291,1448.089L-2805.291,1448.089z
		 M-2805.291,1448.089"/>
</g>
<g>
	<g>
		<path fill="#B5B5B6" d="M33.758,17.39V2.794H11.767v27.233h10.116c0.726,0,1.32,0.588,1.32,1.307c0,0.719-0.594,1.307-1.32,1.307
			H10.448c-0.726,0-1.32-0.589-1.32-1.307V1.487c0-0.719,0.594-1.307,1.32-1.307h24.629c0.726,0,1.319,0.588,1.319,1.307V17.39
			c0,0.719-0.594,1.307-1.319,1.307C34.351,18.698,33.758,18.109,33.758,17.39L33.758,17.39z M40.552,20.571
			c-0.549-0.479-1.385-0.436-1.869,0.109l-7.235,7.974L27.82,25.19c-0.528-0.501-1.364-0.479-1.869,0.044
			c-0.506,0.523-0.484,1.351,0.044,1.852l4.618,4.401c0.242,0.24,0.572,0.37,0.923,0.37h0.044c0.352-0.021,0.704-0.174,0.924-0.436
			l8.136-8.976C41.146,21.878,41.102,21.051,40.552,20.571L40.552,20.571z M28.92,7.805H17.045c-0.726,0-1.32,0.588-1.32,1.307
			c0,0.719,0.594,1.307,1.32,1.307H28.92c0.726,0,1.319-0.588,1.319-1.307C30.239,8.393,29.645,7.805,28.92,7.805L28.92,7.805z
			 M30.239,16.301c0-0.719-0.594-1.307-1.319-1.307H17.045c-0.726,0-1.32,0.588-1.32,1.307c0,0.719,0.594,1.307,1.32,1.307H28.92
			C29.645,17.608,30.239,17.02,30.239,16.301L30.239,16.301z M17.045,21.965c-0.726,0-1.32,0.588-1.32,1.307
			c0,0.719,0.594,1.307,1.32,1.307h3.518c0.726,0,1.319-0.588,1.319-1.307c0-0.719-0.594-1.307-1.319-1.307H17.045z M17.045,21.965"
			/>
	</g>
</g>
</svg>
