<?xml version="1.0" encoding="utf-8"?>
<!-- Generator: Adobe Illustrator 16.0.0, SVG Export Plug-In . SVG Version: 6.00 Build 0)  -->
<!DOCTYPE svg PUBLIC "-//W3C//DTD SVG 1.1//EN" "http://www.w3.org/Graphics/SVG/1.1/DTD/svg11.dtd">
<svg version="1.1" id="Layer_1" xmlns="http://www.w3.org/2000/svg" xmlns:xlink="http://www.w3.org/1999/xlink" x="0px" y="0px"
	 width="150px" height="150px" viewBox="0 0 150 150" enable-background="new 0 0 150 150" xml:space="preserve">
<g>
	<path fill="#151347" d="M140.483,105.403h-12.862c-0.646,0-1.17-0.524-1.17-1.17c0-0.255,0.082-0.498,0.234-0.701
		c4.376-5.83,6.782-13.057,6.782-20.347v-1.169c0-6.448-5.246-11.694-11.693-11.694c-2.58,0-4.678,2.098-4.678,4.677v4.034
		c0,5.823-2.269,11.296-6.385,15.414c-1.37,1.368-2.916,2.552-4.598,3.511l-13.026,7.444h-6.395v-4.678H44.553
		c2.949-3.915,4.722-8.763,4.722-14.032c0-12.895-10.491-23.387-23.388-23.387C12.992,63.307,2.5,73.798,2.5,86.693
		c0,12.896,10.492,23.388,23.387,23.388c3.326,0,6.488-0.709,9.355-1.968V147.5h51.451v-4.678h6.567l11.693,4.678h35.529
		c3.869,0,7.017-3.147,7.017-7.017c0-1.803-0.704-3.433-1.824-4.677c1.122-1.244,1.824-2.874,1.824-4.678
		c0-1.803-0.704-3.434-1.824-4.678c1.122-1.244,1.824-2.874,1.824-4.677c0-1.804-0.704-3.434-1.824-4.678
		c1.122-1.244,1.824-2.874,1.824-4.678C147.5,108.551,144.353,105.403,140.483,105.403L140.483,105.403z M7.178,86.693
		c0-10.315,8.393-18.709,18.709-18.709s18.71,8.394,18.71,18.709c0,4.428-1.553,8.497-4.135,11.703
		c-1.853-2.306-4.2-4.123-6.854-5.327c2.418-2.145,3.973-5.236,3.973-8.715c0-6.447-5.245-11.693-11.693-11.693
		c-6.447,0-11.693,5.246-11.693,11.693c0,3.479,1.555,6.57,3.974,8.715c-2.654,1.206-5.003,3.023-6.854,5.327
		C8.73,95.19,7.178,91.121,7.178,86.693z M18.871,84.354c0-3.868,3.148-7.016,7.016-7.016c3.869,0,7.017,3.147,7.017,7.016
		c0,3.869-3.147,7.017-7.017,7.017C22.02,91.371,18.871,88.224,18.871,84.354z M14.68,101.641c2.631-3.49,6.771-5.592,11.207-5.592
		c4.438,0,8.576,2.104,11.207,5.592c-3.129,2.35-7.002,3.763-11.207,3.763S17.809,103.99,14.68,101.641z M39.92,105.403h32.741
		v37.419H39.92V105.403z M82.017,142.822h-4.678v-37.419h4.678V142.822z M140.483,142.822h-34.631l-11.693-4.677h-7.466v-28.064
		h7.639l14.103-8.06c2.041-1.167,3.922-2.601,5.584-4.266c5.001-5,7.756-11.649,7.756-18.722V75c3.868,0,7.016,3.147,7.016,7.017
		v1.169c0,6.284-2.076,12.515-5.849,17.543c-0.753,1.005-1.167,2.249-1.167,3.505c0,3.223,2.624,5.848,5.847,5.848h12.862
		c1.289,0,2.339,1.05,2.339,2.338c0,1.289-1.05,2.339-2.339,2.339H128.79v4.678h11.693c1.289,0,2.339,1.05,2.339,2.339
		c0,1.288-1.05,2.339-2.339,2.339H128.79v4.677h11.693c1.289,0,2.339,1.051,2.339,2.339c0,1.289-1.05,2.339-2.339,2.339H128.79
		v4.678h11.693c1.289,0,2.339,1.05,2.339,2.338C142.822,141.772,141.772,142.822,140.483,142.822z"/>
	<path fill="#151347" d="M124.113,65.645c12.896,0,23.387-10.491,23.387-23.387c0-12.896-10.491-23.387-23.387-23.387
		c-12.896,0-23.388,10.491-23.388,23.387C100.726,55.154,111.217,65.645,124.113,65.645z M112.906,57.205
		c2.631-3.489,6.771-5.592,11.207-5.592s8.575,2.105,11.207,5.592c-3.13,2.351-7.003,3.763-11.207,3.763
		C119.908,60.968,116.035,59.555,112.906,57.205z M117.097,39.919c0-3.868,3.147-7.016,7.017-7.016c3.868,0,7.016,3.148,7.016,7.016
		s-3.147,7.016-7.016,7.016C120.244,46.936,117.097,43.788,117.097,39.919z M124.113,23.548c10.315,0,18.709,8.394,18.709,18.71
		c0,4.427-1.553,8.496-4.135,11.703c-1.853-2.306-4.2-4.123-6.854-5.328c2.418-2.145,3.974-5.236,3.974-8.714
		c0-6.448-5.246-11.694-11.693-11.694c-6.448,0-11.694,5.246-11.694,11.694c0,3.478,1.556,6.569,3.974,8.714
		c-2.654,1.207-5.002,3.024-6.854,5.328c-2.582-3.207-4.135-7.276-4.135-11.703C105.403,31.942,113.797,23.548,124.113,23.548z"/>
	<path fill="#151347" d="M63.307,67.984c18.055,0,32.742-14.687,32.742-32.742C96.049,17.187,81.361,2.5,63.307,2.5
		S30.564,17.187,30.564,35.242C30.564,53.297,45.252,67.984,63.307,67.984z M63.307,63.307c-7.882,0-15.006-3.279-20.108-8.529
		c1.095-3.581,3.073-6.708,5.676-9.154l3.663,14.649l10.77-8.075l10.77,8.078l3.662-14.649c2.601,2.446,4.58,5.573,5.677,9.153
		C78.312,60.028,71.188,63.307,63.307,63.307z M53.951,25.887c0-5.159,4.195-9.355,9.355-9.355c5.159,0,9.354,4.196,9.354,9.355
		s-4.195,9.354-9.354,9.354C58.146,35.242,53.951,31.046,53.951,25.887z M63.307,45.621l-4.361-5.234
		c1.412-0.295,2.869-0.468,4.361-0.468s2.949,0.173,4.361,0.468L63.307,45.621z M72.418,41.994c0.424,0.201,0.84,0.412,1.246,0.641
		l-2.418,9.673l-4.567-3.426L72.418,41.994z M54.195,41.994l5.738,6.888l-4.566,3.426l-2.419-9.673
		C53.355,42.403,53.771,42.195,54.195,41.994z M63.307,7.177c15.475,0,28.064,12.589,28.064,28.064
		c0,5.634-1.684,10.873-4.554,15.274c-2.849-6.445-8.188-11.362-14.7-13.724c3.182-2.575,5.222-6.504,5.222-10.905
		c0-7.739-6.294-14.032-14.032-14.032c-7.739,0-14.032,6.293-14.032,14.032c0,4.401,2.039,8.331,5.22,10.905
		c-6.514,2.36-11.853,7.278-14.701,13.724c-2.867-4.401-4.551-9.64-4.551-15.274C35.242,19.767,47.831,7.177,63.307,7.177
		L63.307,7.177z"/>
	<path fill="#151347" d="M53.951,72.661h4.678v4.678h-4.678V72.661z"/>
	<path fill="#151347" d="M63.307,72.661h37.419v4.678H63.307V72.661z"/>
	<path fill="#151347" d="M53.951,82.017h46.774v4.677H53.951V82.017z"/>
	<path fill="#151347" d="M53.951,91.371h42.098v4.678H53.951V91.371z"/>
	<path fill="#151347" d="M44.597,133.468h4.678v4.678h-4.678V133.468z"/>
	<path fill="#151347" d="M53.951,133.468h4.678v4.678h-4.678V133.468z"/>
	<path fill="#151347" d="M63.307,133.468h4.678v4.678h-4.678V133.468z"/>
</g>
</svg>
