<?xml version="1.0" encoding="utf-8"?>
<!-- Generator: Adobe Illustrator 16.0.0, SVG Export Plug-In . SVG Version: 6.00 Build 0)  -->
<!DOCTYPE svg PUBLIC "-//W3C//DTD SVG 1.1//EN" "http://www.w3.org/Graphics/SVG/1.1/DTD/svg11.dtd">
<svg version="1.1" id="Layer_1" xmlns="http://www.w3.org/2000/svg" xmlns:xlink="http://www.w3.org/1999/xlink" x="0px" y="0px"
	 width="150px" height="150px" viewBox="0 0 150 150" enable-background="new 0 0 150 150" xml:space="preserve">
<g id="Value_1_" transform="translate(-4709.926 68.008)">
	<path id="Path_30_1_" fill="#151347" d="M4831.302,22.538l-28.211,16.282c-1.284-2.063-3.304-3.563-5.646-4.195l-32.132-8.608
		c-5.449-1.472-11.262-0.759-16.19,1.996l-11.323,6.289v-5.561c0-1.33-1.082-2.417-2.414-2.417h-19.335
		c-1.334,0-2.419,1.087-2.419,2.417v48.335c0,1.334,1.084,2.416,2.419,2.416h19.335c1.332,0,2.416-1.082,2.416-2.416v-6.638
		c3.715,2.745,8.217,4.227,12.839,4.222h23.109c3.789,0,7.511-0.991,10.8-2.872l56.43-32.503c4.625-2.669,6.208-8.583,3.533-13.208
		C4841.842,21.452,4835.928,19.869,4831.302,22.538L4831.302,22.538z M4732.966,74.66h-14.5V31.162h14.5V74.66z M4838.554,35.105
		l-56.411,32.492c-2.558,1.456-5.452,2.225-8.396,2.225h-23.106c-4.488,0.015-8.798-1.77-11.959-4.954l-0.882-0.879V39.821
		l13.668-7.593c3.834-2.143,8.356-2.699,12.594-1.552l32.132,8.608c2.58,0.683,4.119,3.326,3.438,5.909
		c-0.683,2.578-3.329,4.12-5.909,3.438c-0.011,0-0.021-0.005-0.03-0.01l-21.226-5.687c-1.292-0.339-2.613,0.435-2.952,1.729
		c-0.333,1.278,0.422,2.593,1.699,2.941c0,0,22.898,6.031,23.745,6.031c5.25,0.056,9.554-4.15,9.612-9.402
		c0.005-0.228-0.003-0.45-0.016-0.673l29.157-16.827c2.3-1.324,5.236-0.541,6.576,1.744c0.43,0.742,0.657,1.582,0.657,2.441
		C4840.959,32.643,4840.045,34.24,4838.554,35.105z"/>
	<path id="Path_31_1_" fill="#151347" d="M4800.637,31.162c16.017,0,29-12.986,29-29.002c0-16.019-12.983-29-29-29
		c-16.02,0-29.003,12.981-29.003,29l0,0C4771.634,18.176,4784.617,31.162,4800.637,31.162z M4800.637-22.006
		c13.345,0,24.167,10.82,24.165,24.165c0,13.347-10.82,24.165-24.168,24.165s-24.167-10.817-24.167-24.165
		c0-13.345,10.82-24.165,24.167-24.165H4800.637z"/>
	<path id="Path_32_1_" fill="#151347" d="M4749.883-34.092c-1.334,0-2.417-1.082-2.417-2.414c0-1.337-1.082-2.421-2.416-2.421
		s-2.417,1.084-2.417,2.421c0.013,3.058,1.946,5.786,4.833,6.804v2.861c0,1.337,1.082,2.417,2.417,2.417s2.416-1.08,2.416-2.417
		v-2.861c3.769-1.325,5.748-5.459,4.42-9.226c-1.021-2.899-3.763-4.835-6.836-4.83c-1.334,0-2.417-1.084-2.417-2.414
		c0-1.337,1.082-2.421,2.417-2.421s2.416,1.084,2.416,2.421l0,0c0,1.33,1.082,2.414,2.417,2.414s2.418-1.08,2.418-2.414l0,0
		c-0.013-3.063-1.946-5.79-4.835-6.812v-2.858c0-1.337-1.082-2.416-2.416-2.416s-2.417,1.084-2.417,2.416v2.858
		c-3.769,1.327-5.748,5.459-4.42,9.226c1.021,2.901,3.763,4.84,6.837,4.83c1.334,0,2.416,1.084,2.416,2.421
		C4752.299-35.174,4751.217-34.092,4749.883-34.092L4749.883-34.092z"/>
	<path id="Path_33_1_" fill="#151347" d="M4749.883-17.175c13.347,0,24.167-10.817,24.167-24.165s-10.82-24.167-24.167-24.167
		c-13.348,0-24.167,10.82-24.167,24.167l0,0C4725.715-27.993,4736.535-17.175,4749.883-17.175z M4749.883-60.675
		c10.678,0,19.335,8.654,19.335,19.335c0,10.673-8.657,19.33-19.335,19.33c-10.676,0-19.333-8.657-19.333-19.33
		C4730.55-52.016,4739.204-60.675,4749.883-60.675L4749.883-60.675L4749.883-60.675z"/>
	<path id="Path_34_1_" fill="#151347" d="M4800.634,14.238c-2.669,0-4.832-2.161-4.832-4.83c-0.003-1.334-1.085-2.411-2.419-2.411
		c-1.335,0-2.414,1.077-2.416,2.411c0.018,4.396,2.997,8.228,7.251,9.324v2.765c0,1.33,1.082,2.411,2.416,2.411
		c1.335,0,2.416-1.076,2.419-2.411l0,0v-2.765c5.158-1.324,8.265-6.584,6.94-11.745c-1.103-4.267-4.951-7.254-9.356-7.244
		c-2.672,0-4.835-2.169-4.835-4.833c0-2.669,2.166-4.838,4.835-4.838s4.832,2.169,4.832,4.838c0,1.334,1.082,2.416,2.416,2.416
		c1.335,0,2.417-1.082,2.417-2.416l0,0c-0.016-4.398-2.995-8.225-7.249-9.324v-2.763c0-1.33-1.082-2.414-2.416-2.414
		c-1.335,0-2.417,1.079-2.419,2.414l0,0v2.763c-5.158,1.327-8.268,6.584-6.938,11.74c1.097,4.271,4.948,7.254,9.356,7.249
		c2.669,0,4.83,2.168,4.83,4.832c-0.003,2.669-2.164,4.83-4.83,4.83H4800.634z"/>
	<path id="Path_35_1_" fill="#151347" d="M4836.885-65.508c-10.678,0-19.335,8.657-19.335,19.333
		c0,10.678,8.657,19.335,19.335,19.335c10.679,0,19.335-8.657,19.335-19.335C4856.22-56.851,4847.563-65.508,4836.885-65.508
		L4836.885-65.508z M4836.885-38.927c-1.334,0-2.416-1.077-2.416-2.414l0,0c0-1.337-1.084-2.416-2.416-2.416
		c-1.335,0-2.416,1.079-2.416,2.416c0.01,3.063,1.946,5.785,4.832,6.804v2.644c-7.888-1.327-13.208-8.801-11.879-16.684
		c1.023-6.086,5.793-10.858,11.879-11.882v2.641c-3.771,1.322-5.752,5.449-4.433,9.22c1.021,2.907,3.769,4.85,6.849,4.84
		c1.335,0,2.417,1.079,2.417,2.416S4838.223-38.927,4836.885-38.927L4836.885-38.927L4836.885-38.927z M4839.302-31.893v-2.644
		c3.769-1.327,5.747-5.454,4.42-9.225c-1.021-2.894-3.763-4.835-6.837-4.83c-1.334,0-2.416-1.079-2.416-2.414
		c0-1.337,1.082-2.416,2.416-2.416c1.335,0,2.417,1.079,2.417,2.416c0,1.334,1.084,2.414,2.418,2.414
		c1.335,0,2.417-1.084,2.417-2.414c-0.013-3.063-1.949-5.785-4.835-6.806v-2.642c7.891,1.325,13.208,8.793,11.879,16.682
		c-1.021,6.088-5.793,10.858-11.879,11.884V-31.893z"/>
</g>
</svg>
