<?xml version="1.0" encoding="utf-8"?>
<!-- Generator: Adobe Illustrator 21.0.2, SVG Export Plug-In . SVG Version: 6.00 Build 0)  -->
<svg version="1.1" id="Capa_1" xmlns="http://www.w3.org/2000/svg" xmlns:xlink="http://www.w3.org/1999/xlink" x="0px" y="0px"
	 viewBox="0 0 24.8 22.2" style="enable-background:new 0 0 24.8 22.2;" xml:space="preserve">
<style type="text/css">
	.st0{fill:#F1F1FF;}
	.st1{fill:#00034A;}
</style>
<rect x="0" class="st0" width="24.8" height="22.2"/>
<g>
	<path class="st1" d="M24.5,19.6L13.9,0.9C13.6,0.4,13,0,12.4,0s-1.2,0.4-1.5,0.9L0.3,19.5c-0.3,0.6-0.3,1.3,0,1.8
		c0.3,0.5,0.9,0.9,1.6,0.9H23c0.7,0,1.3-0.3,1.6-0.9C24.8,20.8,24.8,20.1,24.5,19.6z M12.3,6c0.8,0,1.5,0.7,1.5,1.5v5.3
		c0,0.8-0.7,1.5-1.5,1.5c-0.8,0-1.5-0.7-1.5-1.5V7.4C10.8,6.6,11.5,6,12.3,6z M12.4,15.8c0.8,0,1.5,0.7,1.5,1.5s-0.7,1.5-1.5,1.5
		c-0.8,0-1.5-0.7-1.5-1.5S11.6,15.8,12.4,15.8z"/>
</g>
</svg>
